iir.vcd
$comment
Copyright (C) 1991-2009 Altera Corporation
Your use of Altera Corporation's design tools, logic functions 
and other software and tools, and its AMPP partner logic 
functions, and any output files from any of the foregoing 
(including device programming or simulation files), and any 
associated documentation or information are expressly subject 
to the terms and conditions of the Altera Program License 
Subscription Agreement, Altera MegaCore Function License 
Agreement, or other applicable license agreement, including, 
without limitation, that your use is for the sole purpose of 
programming logic devices manufactured by Altera and sold by 
Altera or its authorized distributors.  Please refer to the 
applicable agreement for further details.
$end

$date 
  12/12/2025 00:06:45 
$end
$version 
 QUARTUS_VCD_EXPORT 1.0 
$end
$timescale
  1 ps
$end
$scope module top_fft_iir $end
$var reg 1 ! clk $end
$var reg 1 " rst $end
$var reg 1 # mode $end
$var reg 16 $ y_out[15:0] $end
$upscope $end
$enddefinitions $end
#0
$dumpvars
0!
1"
0#
b0 $
$end
#10000
1!
#20000
0!
#30000
1!
#40000
0!
#50000
1!
0"
#60000
0!
#70000
1!
1"
b1111101000111101 $
#80000
0!
#90000
1!
b111011001001 $
#100000
0!
#110000
1!
b1111001111111100 $
#120000
0!
#130000
1!
b1111101110111010 $
#140000
0!
#150000
1!
b111000110101 $
#160000
0!
#170000
1!
b101111101010 $
#180000
0!
#190000
1!
b1111110010001100 $
#200000
0!
#210000
1!
b1111111110000100 $
#220000
0!
#230000
1!
b100111010101 $
#240000
0!
#250000
1!
b10011111000 $
#260000
0!
#270000
1!
b10011001001 $
#280000
0!
#290000
1!
b1001110101000 $
#300000
0!
#310000
1!
b1010000100001 $
#320000
0!
#330000
1!
b11011111111 $
#340000
0!
#350000
1!
b110100010001 $
#360000
0!
#370000
1!
b1110011100100 $
#380000
0!
#390000
1!
b1011000010010 $
#400000
0!
#410000
1!
b10111011100 $
#420000
0!
#430000
1!
b100001011000 $
#440000
0!
#450000
1!
b111111000101 $
#460000
0!
#470000
1!
b100011000110 $
#480000
0!
#490000
1!
b10111000010 $
#500000
0!
#510000
1!
b111101010111 $
#520000
0!
#530000
1!
b101001111010 $
#540000
0!
#550000
1!
b1111100100101001 $
#560000
0!
#570000
1!
b1111110101001100 $
#580000
0!
#590000
1!
b111011111110 $
#600000
0!
#610000
1!
b101000000010 $
#620000
0!
#630000
1!
b1111100110101111 $
#640000
0!
#650000
1!
b1111111001110110 $
#660000
0!
#670000
1!
b100100010011 $
#680000
0!
#690000
1!
b1010011111 $
#700000
0!
#710000
1!
b1111111100010000 $
#720000
0!
#730000
1!
b100001010011 $
#740000
0!
#750000
1!
b1110011100 $
#760000
0!
#770000
1!
b1111000000111001 $
#780000
0!
#790000
1!
b1110111010100101 $
#800000
0!
#810000
1!
b1111111101001001 $
#820000
0!
#830000
1!
b100100111 $
#840000
0!
#850000
1!
b1111001011000000 $
#860000
0!
#870000
1!
b1110111010101100 $
#880000
0!
#890000
1!
b1111000001110010 $
#900000
0!
#910000
1!
b1110011111100100 $
#920000
0!
#930000
1!
b1110100011100010 $
#940000
0!
#950000
1!
b1111110101001010 $
#960000
0!
#970000
1!
b1011010101 $
#980000
0!
#990000
1!
b1110111011010110 $
